B+
B+
D+
B+
B+
B-
B+
B+
B+
B
A
B+
C+
B+
A
A
B+
A
B+
B+
B-
A
A
B-
B+
B+
B+
D+
B-
A
C+
B+
B+
B+
B+
A
B+
B+
A
B-
B+
C
C
A
B+
B+
C-
B+
B+
B+
B-
B+
B+
D+
D-
D+
B+
B+
B+
B+
B+
B+
A
B+
B-
B+
B+
A
D+
B+
A
B+
A
B+
B-
A
B+
A
A
A
B+
A
B-
B+
A
B+
C+
B+
B+
B+
B
B
B+
B+
B
B+
D+
B+
B-
B+
B+
C+
A-
A
F
C-
B+
A
C
B+
A
B+
B+
A
C+
B+
B+
D+
B+
A-
B+
C
C-
B+
B+
C+
B+
B+
B-
B+
B-
A
B+
D+
A
B+
B+
B+
B+
B+
B-
D+
C+
A
B+
B+
B-
C
A
B+
B-
C
A
B+
B+
B+
B+
B+
A
B+
A
B+
B+
B+
B+
A
B+
B-
A
C
B-
B+
B-
B+
B+
C
B
A
C+
B+
B+
B+
A
B+
A
B+
A
D+
C+
B+
B+
A
B+
B+
D+
B+
C+
B+
C+
D+
A
A-
C
A-
B-
B+
A
B+
B+
B+
B+
B+
B+
B+
B+
B-
C+
C+
